<svg id="icons8-number_pad" xmlns="http://www.w3.org/2000/svg" width="24" height="21.23" viewBox="0 0 24 21.23">
  <path id="Shape" d="M22.154,10.154H18.462a1.871,1.871,0,0,1-1.846-1.846V5.884l-.059-.027a3.638,3.638,0,0,0-.663-.232A14.049,14.049,0,0,0,12,5.135a14.063,14.063,0,0,0-3.894.49,3.6,3.6,0,0,0-.662.232l-.059.028V8.308a1.871,1.871,0,0,1-1.846,1.846H1.846A1.871,1.871,0,0,1,0,8.308v-2.6A4.665,4.665,0,0,1,3.317,1.269,30.905,30.905,0,0,1,12,0a31.008,31.008,0,0,1,8.683,1.269A4.667,4.667,0,0,1,24,5.711v2.6A1.871,1.871,0,0,1,22.154,10.154ZM12,3.289a15.915,15.915,0,0,1,4.414.548A7.741,7.741,0,0,1,18,4.471l.462.259V8.308h3.692v-2.6a2.777,2.777,0,0,0-1.99-2.683,28.767,28.767,0,0,0-16.327,0A2.776,2.776,0,0,0,1.846,5.711v2.6H5.539V4.73L6,4.471a7.72,7.72,0,0,1,1.586-.635A15.928,15.928,0,0,1,12,3.289Z" fill="#fff"/>
  <g id="Group_3" data-name="Group 3" transform="translate(4 12)">
    <path id="Combined_Shape" data-name="Combined Shape" d="M11.077,7.385A1.846,1.846,0,1,1,12.923,9.23,1.846,1.846,0,0,1,11.077,7.385Zm-5.539,0A1.846,1.846,0,1,1,7.385,9.23,1.846,1.846,0,0,1,5.539,7.385ZM0,7.385A1.846,1.846,0,1,1,1.846,9.23,1.846,1.846,0,0,1,0,7.385ZM11.077,1.846a1.846,1.846,0,1,1,1.846,1.847A1.846,1.846,0,0,1,11.077,1.846Zm-5.539,0A1.846,1.846,0,1,1,7.385,3.693,1.846,1.846,0,0,1,5.539,1.846ZM0,1.846A1.846,1.846,0,1,1,1.846,3.693,1.846,1.846,0,0,1,0,1.846Z" transform="translate(0.615)" fill="#fff"/>
  </g>
</svg>
