<svg id="icons8-business_contact" xmlns="http://www.w3.org/2000/svg" width="26" height="20" viewBox="0 0 26 20">
  <path id="Shape" d="M26,20H0V0H26V20Zm-7-3a2.034,2.034,0,0,1,1.437.563.428.428,0,0,1,.1.241.625.625,0,0,0,.059.2H24V2H2V18H5.406a.627.627,0,0,0,.058-.194.445.445,0,0,1,.1-.244,2.118,2.118,0,0,1,2.875,0,.415.415,0,0,1,.1.235v.008A.6.6,0,0,0,8.594,18h8.812a.581.581,0,0,0,.057-.181l0-.014a.436.436,0,0,1,.1-.243A2.034,2.034,0,0,1,19,17ZM6,15H4a5.022,5.022,0,0,1,2.219-4.156A3.964,3.964,0,0,1,5,8a4,4,0,1,1,8,0,3.963,3.963,0,0,1-1.219,2.844A5.022,5.022,0,0,1,14,15H12a3,3,0,1,0-6,0ZM9,6a2,2,0,1,0,2,2A1.979,1.979,0,0,0,9,6Zm13,7H16V11h6v2Zm0-4H16V7h6V9Z" fill="#fff"/>
</svg>
