<svg id="icons8-inbox" xmlns="http://www.w3.org/2000/svg" width="22" height="22" viewBox="0 0 22 22">
  <path id="Shape" d="M22,22H0V13.844l2-13L2.156,0H19.844L20,.843l2,13V22ZM2,15H2v5H20V15H14.812a3.922,3.922,0,0,1-7.625,0H2ZM3.875,2,2.188,13H9v1a2,2,0,0,0,4,0V13h6.813L18.125,2H3.875Z" fill="#fff"/>
</svg>
